How to keep it togetheR
…
ninetees_summary <- pertussis_data_tidy %>%
  dplyr::select(country, year, annual_pertussis_cases) %>%
  mutate(year = as.character(year)) %>%
  dplyr::filter(year %in% ninetees) %>%
  dplyr::filter(country != "Bulgaria") %>%
  group_by(country) %>%
  summarise(all_cases_ninetees = sum(annual_pertussis_cases, na.rm = TRUE)) %>%
  arrange(desc(all_cases_ninetees))

Nintees data

ninetees_summary

## # A tibble: 52 x 2
##    country                                              all_cases_ninetees
##    <chr>                                                             <int>
##  1 Russian Federation                                               254885
##  2 Switzerland                                                      104500
##  3 Sweden                                                            73909
##  4 Italy                                                             73064
##  5 Spain                                                             40317
##  6 United Kingdom of Great Britain and Northern Ireland              30736
##  7 Ukraine                                                           25170
##  8 Netherlands                                                       16738
##  9 Poland                                                             8621
## 10 Romania                                                            7447
## # ... with 42 more rows
…
Lets examine two models for two countries where the non-linear did and did not not improve the R.squared: Ireland (improved) and Belgium (not-improved)

x <- nested_pertussis %>%
  select(country,
         data, 
         models_lm,
         statistics_nl) %>%
  gather(models_lm:statistics_nl, key = "models", value = "model_params") %>%
 print()  

## # A tibble: 104 x 4
##    country                data              models    model_params
##    <chr>                  <list>            <chr>     <list>      
##  1 Albania                <tibble [22 x 2]> models_lm <S3: lm>    
##  2 Armenia                <tibble [23 x 2]> models_lm <S3: lm>    
##  3 Austria                <tibble [22 x 2]> models_lm <S3: lm>    
##  4 Azerbaijan             <tibble [23 x 2]> models_lm <S3: lm>    
##  5 Belarus                <tibble [22 x 2]> models_lm <S3: lm>    
##  6 Belgium                <tibble [21 x 2]> models_lm <S3: lm>    
##  7 Bosnia and Herzegovina <tibble [19 x 2]> models_lm <S3: lm>    
##  8 Bulgaria               <tibble [22 x 2]> models_lm <S3: lm>    
##  9 Croatia                <tibble [23 x 2]> models_lm <S3: lm>    
## 10 Cyprus                 <tibble [23 x 2]> models_lm <S3: lm>    
## # ... with 94 more rows
…
