First EncounteR
…
## # A tibble: 4 x 2
##   pop_1 pop_2
##   <dbl> <dbl>
## 1  4.39 12.0 
## 2  4.69 10.6 
## 3  6.28 12.8 
## 4  4.95  9.73

1.10 You can add variables (the 5 countries)

countries <- rep(1:5, times = length(pop_1)/5)
populations <- tibble(pop_1, pop_2, countries) %>%
  print()

## # A tibble: 1,300,000 x 3
##    pop_1 pop_2 countries
##    <dbl> <dbl>     <int>
##  1  4.39 12.0          1
##  2  4.69 10.6          2
##  3  6.28 12.8          3
##  4  4.95  9.73         4
##  5  5.01  9.05         5
##  6  6.42  5.82         1
##  7  5.30 11.2          2
##  8  3.76 16.2          3
##  9  4.28  9.55         4
## 10  4.49  8.10         5
## # ... with 1,299,990 more rows

To see the dataframe

populations

## # A tibble: 1,300,000 x 3
##    pop_1 pop_2 countries
##    <dbl> <dbl>     <int>
##  1  4.39 12.0          1
##  2  4.69 10.6          2
##  3  6.28 12.8          3
##  4  4.95  9.73         4
##  5  5.01  9.05         5
##  6  6.42  5.82         1
##  7  5.30 11.2          2
##  8  3.76 16.2          3
##  9  4.28  9.55         4
## 10  4.49  8.10         5
## # ... with 1,299,990 more rows

1.11 R can reshape data

populations <- populations %>% 
  gather(key = sample, value = value, pop_1:pop_2) %>%
  print()

## # A tibble: 2,600,000 x 3
##    countries sample value
##        <int> <chr>  <dbl>
##  1         1 pop_1   4.39
##  2         2 pop_1   4.69
##  3         3 pop_1   6.28
##  4         4 pop_1   4.95
##  5         5 pop_1   5.01
##  6         1 pop_1   6.42
##  7         2 pop_1   5.30
##  8         3 pop_1   3.76
##  9         4 pop_1   4.28
## 10         5 pop_1   4.49
## # ... with 2,599,990 more rows
…
1.15 Save graphics

ggsave(filename = "./images/demo_bar.png")

1.16 Save dataframe

write_csv(populations, path = "./data/demo_populations.csv")

1.17 R can read external data

gene_expression <- read_csv(file.path(root, "data", "results.csv"))
gene_expression

## # A tibble: 13,308 x 13
##    X1    baseMean log2FoldChange  lfcSE  stat    pvalue      padj ontologyall
##    <chr>    <dbl>          <dbl>  <dbl> <dbl>     <dbl>     <dbl> <chr>      
##  1 ENSM~     478.           3.99 0.161   24.7 3.16e-135 3.39e-131 BP         
##  2 ENSM~    1149.           2.09 0.0872  24.0 1.69e-127 9.07e-124 BP         
##  3 ENSM~     394.           3.77 0.166   22.6 2.06e-113 7.37e-110 CC         
##  4 ENSM~     570.          -3.89 0.173  -22.5 1.68e-112 4.49e-109 BP         
##  5 ENSM~     931.          -2.40 0.109  -22.0 6.45e-107 1.38e-103 BP         
##  6 ENSM~     541.          -3.73 0.171  -21.9 3.21e-106 5.75e-103 BP         
##  7 ENSM~     831.          -2.27 0.110  -20.6 4.81e- 94 7.38e- 91 BP         
##  8 ENSM~     730.           2.08 0.105   19.8 2.74e- 87 3.68e- 84 BP         
##  9 ENSM~     443.          -3.29 0.172  -19.1 3.51e- 81 4.18e- 78 BP         
## 10 ENSM~     411.          -4.00 0.211  -18.9 6.29e- 80 6.75e- 77 BP         
## # ... with 13,298 more rows, and 5 more variables: go <chr>, entrez <dbl>,
## #   ensemblprot <chr>, symbol <chr>, path <chr>
…
 }

1.20 Apply repeating() on string

r_is_great <- c("R is great for Data Science")
## apply string to function
r_is_great_table <- repeating(r_is_great, times = 100)
r_is_great_table

## # A tibble: 100 x 1
##    input_string               
##    <chr>                      
##  1 R is great for Data Science
##  2 R is great for Data Science
##  3 R is great for Data Science
##  4 R is great for Data Science
##  5 R is great for Data Science
##  6 R is great for Data Science
##  7 R is great for Data Science
##  8 R is great for Data Science
##  9 R is great for Data Science
## 10 R is great for Data Science
## # ... with 90 more rows
…
