…
```

B) Join all raw sample counts into one big matrix, before joining rename the columns to the appropriate sample names. Try writing a function and 
use an iterations to loop over all individual raw counts files.

**STEPS**

 1. Write a function that takes the path of an individual counts file as input. 
 2. This function must use `sample <- str_split(basename(path), pattern = "_")[[1]][1]` to get the sample name from the file name.
 3. The function must generate this output from a parsed file:

``` 
# A tibble: 34,700 x 3
   ensemble_id     counts sample    
   <chr>            <dbl> <chr>     
 1 ENSG00000000003    326 GSM3264576
 2 ENSG00000000005      0 GSM3264576
 3 ENSG00000000419    457 GSM3264576
 4 ENSG00000000457    146 GSM3264576
 5 ENSG00000000460    126 GSM3264576
 6 ENSG00000000938      0 GSM3264576
 7 ENSG00000000971      0 GSM3264576
 8 ENSG00000001036    913 GSM3264576
 9 ENSG00000001084    815 GSM3264576
10 ENSG00000001167    384 GSM3264576
# ... with 34,690 more rows 
```
 
 4. Use a loop with `map()` to read all raw counts files in a list
 5. Use `dplyr::bind_rows()` to create a big dataframe from this list
 6. Use `tidyr::spread()` to create a wide dataframe that looks like:

``` 
 # A tibble: 34,700 x 13
   ensemble_id GSM3264576 GSM3264577 GSM3264578 GSM3264579 GSM3264580 GSM3264581
   <chr>            <dbl>      <dbl>      <dbl>      <dbl>      <dbl>      <dbl>
 1 ENSG000000~        326        387        338        337        362        382
 2 ENSG000000~          0          1          0          0          0          0
 3 ENSG000000~        457        395        381        327        348        398
 4 ENSG000000~        146        142        150        140        136        143
 5 ENSG000000~        126        113         93         97         93         94
 6 ENSG000000~          0          2          0          0          1          0
 7 ENSG000000~          0          0          0          0          0          0
 8 ENSG000000~        913        899        845        932        942       1093
 9 ENSG000000~        815        739        654        595        743        768
10 ENSG000000~        384        375        322        275        394        459
# ... with 34,690 more rows, and 6 more variables: GSM3264582 <dbl>,
#   GSM3264583 <dbl>, GSM3264584 <dbl>, GSM3264585 <dbl>, GSM3264586 <dbl>,
#   GSM3264587 <dbl>
```
…
